Text analysis: title and abstract of male and female speakers
…
melina-leite

2024-06-30

words with the greates difference in Beta between topics

beta_spread <- ap_topics %>%
  mutate(topic = paste0("topic", topic)) %>%
  spread(topic, beta) %>%
  filter(topic1 > .001 | topic2 > .001) %>%
  mutate(log_ratio = log2(topic2 / topic1))
beta_spread

# A tibble: 254 × 4
   term           topic1   topic2 log_ratio
   <chr>           <dbl>    <dbl>     <dbl>
 1 abundance   0.00155   0.000501   -1.63  
 2 action      0.000531  0.00134     1.34  
 3 activities  0.000459  0.00116     1.33  
 4 adaptation  0.000769  0.00222     1.53  
 5 addition    0.00100   0.00106     0.0791
 6 advance     0.0000853 0.00115     3.75  
 7 affect      0.000752  0.00117     0.638 
 8 agriculture 0.00106   0.00135     0.355 
 9 also        0.00283   0.00275    -0.0386
10 amazon      0.000871  0.00130     0.577 
# ℹ 244 more rows
…
melina-leite

2024-06-30

words with the greates difference in Beta between topics

beta_spread <- ap_topicsP %>%
  mutate(topic = paste0("topic", topic)) %>%
  spread(topic, beta) %>%
  filter(topic1 > .001 | topic2 > .001) %>%
  mutate(log_ratio = log2(topic2 / topic1))
beta_spread

# A tibble: 348 × 4
   term         topic1   topic2 log_ratio
   <chr>         <dbl>    <dbl>     <dbl>
 1 abundance  0.00132  5.08e-44  -134.   
 2 accepted   0.00132  1.47e-37  -113.   
 3 across     0.000791 1.53e- 3     0.953
 4 action     0.00153  3.66e- 4    -2.06 
 5 activities 0.00177  7.01e- 4    -1.34 
 6 adaptation 0.00161  3.95e- 3     1.30 
 7 addition   0.00106  9.98e-10   -20.0  
 8 address    0.000528 1.23e- 3     1.22 
 9 advance    0.000538 1.52e- 3     1.50 
10 affect     0.00201  4.20e- 4    -2.26 
# ℹ 338 more rows
…
